2 Caribou Analysis – PhD Meeting Notes
…
calibou_gap |> 
    group_by(group) |> 
    count(time_gap) |> 
    arrange(-n)

# A tibble: 486 × 3
# Groups:   group [2]
   group time_gap     n
   <dbl>    <dbl> <int>
 1  2009      540 14927
 2  2002      240 13448
 3  2002      480  4032
 4  2002      239  2284
 5  2002      241  2233
 6  2009      539  2119
 7  2009      541  2096
 8  2002      720  1635
 9  2002      479   814
10  2002      960   767
# ℹ 476 more rows
…
